{
  "images" : [
    {
      "idiom" : "iphone",
      "filename" : "ChipsPack_2.pdf"
    },
    {
      "idiom" : "ipad",
      "filename" : "ChipsPack_2_iPad.pdf"
    }
  ],
  "info" : {
    "version" : 1,
    "author" : "xcode"
  }
}