{
  "images" : [
    {
      "idiom" : "universal",
      "filename" : "PlayerFrame.pdf",
      "resizing" : {
        "mode" : "9-part",
        "center" : {
          "mode" : "fill",
          "width" : 1,
          "height" : 12
        },
        "capInsets" : {
          "bottom" : 27,
          "top" : 0,
          "right" : 13,
          "left" : 14
        }
      }
    }
  ],
  "info" : {
    "version" : 1,
    "author" : "xcode"
  }
}